................
----------------------------------------------------------------------
Ran 16 tests in 0.000s

OK
Name               Stmts   Miss Branch BrPart  Cover   Missing
--------------------------------------------------------------
Diplomacy.py          89      0     54      0   100%
TestDiplomacy.py      67      0      0      0   100%
--------------------------------------------------------------
TOTAL                156      0     54      0   100%
