........
----------------------------------------------------------------------
Ran 8 tests in 0.002s

OK
Name               Stmts   Miss Branch BrPart  Cover   Missing
--------------------------------------------------------------
Diplomacy.py          45      0     36      0   100%
TestDiplomacy.py      54      0      2      1    98%   56->exit
--------------------------------------------------------------
TOTAL                 99      0     38      1    99%