......
----------------------------------------------------------------------
Ran 6 tests in 0.001s

OK
Name               Stmts   Miss Branch BrPart  Cover   Missing
--------------------------------------------------------------
Diplomacy.py          53      0     32      0   100%
TestDiplomacy.py      33      0      0      0   100%
--------------------------------------------------------------
TOTAL                 86      0     32      0   100%
